…
library(merTools)
predictInterval(ij_mixed) %>% 
  summarise(across(everything(), mean, na.rm= TRUE))
#         fit      upr        lwr
# 1 0.3591981 1.251134 -0.5319677

#REsim(ij_mixed)
plotREsim(REsim(ij_mixed))

<img src="{{< blogdown/postref >}}index_files/figure-html/unnamed-chunk-10-1.png" width="480" />

MCMCglmn model for INJ

dfdemo
# # A tibble: 100 x 8
#         CASENUM WEATHHER  VENO   AGE  AGE1   SEX REST_USE INJ_SEV
#           <dbl>    <dbl> <dbl> <dbl> <dbl> <dbl>    <dbl>   <dbl>
#  1 201700316865        0     1    49     2     1        1       0
#  2 201700316865        0     2    16     0     1        1       0
#  3 201600777740        0     1    18     0     1        1       1
#  4 201600777740        0     2    38     1     0        1       1
#  5 201801320571        2     1    71     3     1        1       0
#  6 201801320571        2     2    64     3     1        1       2
#  7 201701398622        0     1    27     1     0        1       0
#  8 201701398622        0     2    54     2     1        1       0
#  9 201801136328        2     1    18     0     1        1       0
# 10 201801136328        2     2    28     1     1        1       1
# # … with 90 more rows
…
